q,LFU,PLFU,LRU,MFU,normal
0,0.0400189902621,0.0400189902621,0.0400189902621,0.0400189902621,0.0400189902620535
1,0.0108848504069,0.0108848504069,0.0108848504069,0.0108848504069,0.010884850406949918
2,0.0105700437288,0.0105700437288,0.0105700437288,0.0105700437288,0.010570043728808707
3,0.00822283329865,0.00821385876178,0.00818497363167,0.0082109334135,0.008184973631671507
4,0.00693738389181,0.00693653238586,0.00687591744054,0.00691388282309,0.00687591744053774
5,0.00475591374049,0.00473059403346,0.00458252257193,0.00482601005179,0.004582522571927889
6,0.0029904569666,0.0029904569666,0.0029904569666,0.0029904569666,0.0029904569666015855
7,0.00293237589156,0.00293878875274,0.00287703296014,0.00291047734989,0.0028770329601353157
8,0.00282913058847,0.00282913058847,0.00282913058847,0.00282913058847,0.0028291305884723767
9,0.00245119711881,0.00240261502901,0.0022916054122,0.00254365199973,0.0022916054121971553
10,0.00230379491398,0.0022862219014,0.00223365455452,0.00229193384627,0.002233654554524462
11,0.0021782554617,0.00216931919167,0.0021071537512,0.00217809055641,0.0021071537511961826
12,0.00211298517669,0.0021117019988,0.00208719442967,0.00212440273451,0.002087194429669958
13,0.00207295393554,0.00206246331614,0.0020270411641,0.00210967936245,0.0020270411641047158
14,0.00205351245517,0.00205189120766,0.00197266921926,0.00209168651587,0.001972669219257414
15,0.00201652934653,0.00200865243471,0.00194128490679,0.00204673647198,0.001941284906788592
16,0.00199446452306,0.00199979324896,0.00192490449809,0.00204304826467,0.0019249044980877593
17,0.00192490449809,0.00192490449809,0.00192449154661,0.00198127788111,0.0019244915466079065
18,0.00191782843683,0.00190444715708,0.00185662985342,0.00197614957433,0.0018566298534187426
19,0.00188866360091,0.00188861900216,0.00185222503763,0.00195095843285,0.0018522250376336448
20,0.00186462294226,0.00185232084238,0.00182689734687,0.00192488274931,0.0018268973468693322
21,0.00182689734687,0.00182689734687,0.0018079015788,0.00187506758639,0.0018079015787960979
22,0.00179331062651,0.00179331062651,0.00179331062651,0.00187071315069,0.0017933106265079612
23,0.00177350437233,0.00178279715713,0.00175008837162,0.00179636509095,0.0017500883716166885
24,0.00175512004775,0.00165051145417,0.00161890745152,0.00176764541673,0.0016189074515167432
25,0.00166998294235,0.00162691485601,0.00158146651734,0.00176280232178,0.0015814665173434115
26,0.00164900005176,0.00162184408714,0.00155393641869,0.0016778948174,0.00155393641868655
27,0.0016304557773,0.0016092754959,0.00152957228138,0.00164215083851,0.0015295722813752275
28,0.00161846366633,0.00158063565897,0.00149158074523,0.0016049783228,0.0014915807452287586
29,0.00158129720724,0.00157358767841,0.00148043105527,0.0015606086134,0.0014804310552727297
30,0.00156481769018,0.00156811194179,0.00147712744343,0.00155399065298,0.0014771274434339063
31,0.00154410624636,0.00154469263746,0.00145358920908,0.00154167781636,0.0014535892090822896
32,0.00153400022244,0.00153679232505,0.00145179975267,0.00152451059744,0.0014517997526695937
33,0.00153353578968,0.00153487705609,0.00144643138343,0.00151799009357,0.0014464313834315057
34,0.00153206100229,0.00150719058647,0.00139949256522,0.00151461490347,0.0013994925652215566
35,0.00149105381914,0.00149853677526,0.00134401941643,0.00149279509788,0.0013440194164279808
36,0.00142101917526,0.00142725804622,0.0013363109888,0.0014791542093,0.0013363109888040595
37,0.00141888614322,0.0014073568132,0.00133576038683,0.00146139839687,0.0013357603868309222
38,0.00137074591151,0.00137642674736,0.00132282124046,0.0014147794784,0.0013228212404621973
39,0.00135782603621,0.00136320376568,0.00130988209409,0.00138383867582,0.0013098820940934724
40,0.00135662049319,0.00134472198455,0.00130244896746,0.00135828028283,0.0013024489674561199
41,0.00134718702958,0.00133529347636,0.00128152609248,0.00134531828648,0.001281526092476905
42,0.00134389442978,0.00131783911851,0.00125991496503,0.0013267398747,0.0012599149650312687
43,0.00130036686609,0.00131241568907,0.0012461499157,0.00132462253482,0.001246149915702838
44,0.00129703820187,0.00129921886098,0.00123555082772,0.00130499219797,0.0012355508277199462
45,0.00128030623381,0.00129301137434,0.00123334841983,0.00128965655651,0.0012333484198273972
46,0.00127339177423,0.00128422486805,0.0012052677192,0.00127426998437,0.0012052677191973986
47,0.00127064784929,0.00127825469085,0.00119425567973,0.0012577310023,0.001194255679734654
48,0.00124766682414,0.00123134725696,0.0011930168253,0.00125767649271,0.0011930168252950952
49,0.00121530822148,0.00122755994128,0.00118806140754,0.00125572543462,0.00118806140753686
50,0.00121364622942,0.00121286850414,0.00117512226117,0.00124959172864,0.001175122261168135
51,0.00120995416789,0.00120447815597,0.00116989154242,0.00124852906683,0.0011698915424233315
52,0.00119425567973,0.00119425567973,0.00116479847417,0.00124714210046,0.0011647984741718121
53,0.00117842890132,0.00119037558763,0.00115681474556,0.00121050697227,0.0011568147455613222
54,0.0011656155675,0.00118413341306,0.00115075812386,0.00120452303003,0.0011507581238568126
55,0.00116255642294,0.00116371158588,0.00114387559919,0.00119281695678,0.0011438755991925972
56,0.00116073750932,0.00116232929962,0.00114043433686,0.00117227702547,0.0011404343368604897
57,0.00115956940723,0.00116172171035,0.00113823192897,0.00116084597791,0.0011382319289679407
58,0.00115953939943,0.00114055189038,0.00110464520861,0.00115613722983,0.0011046452086065695
59,0.00114221718605,0.00113587094771,0.00108757654744,0.00114677011377,0.0010875765474393155
60,0.00113274848392,0.00112893116044,0.00108275878017,0.00114600257461,0.0010827587801743646
61,0.00111614370491,0.00110930632961,0.00107257264367,0.00112826355555,0.0010725726436713258
62,0.0011161395754,0.00110639887589,0.00106899373085,0.0011186511463,0.0010689937308459338
63,0.00111247862288,0.00110622103145,0.00106472656555,0.00110992300382,0.0010647265655541202
64,0.00110563519095,0.00109636470553,0.00106224885667,0.00110853521155,0.0010622488566750029
65,0.0010954909002,0.00109584301016,0.0010535768756,0.0011016581929,0.0010535768755980913
66,0.00109204082824,0.00108590904936,0.00105233802116,0.00109619594603,0.0010523380211585327
67,0.00107881674535,0.00108459613896,0.0010411883312,0.00107716741714,0.0010411883312025038
68,0.00107556461479,0.00107813867902,0.00103733411739,0.00106164952643,0.001037334117390543
69,0.00107287106994,0.00107029012319,0.00103485640851,0.00106087950957,0.0010348564085114254
70,0.00106687143554,0.00106195483522,0.00103237869963,0.00105959137625,0.001032378699632308
71,0.00106084261924,0.00105014029338,0.00102122900968,0.00105815595691,0.0010212290096762791
72,0.00104753484485,0.0010486666072,0.00100939106725,0.00103697540021,0.0010093910672538287
73,0.00104179977469,0.00104091247961,0.00100498625147,0.00103274705235,0.0010049862514687309
74,0.00103295077508,0.00102919924854,0.000996727221872,0.00103262454341,0.0009967272218716723
75,0.00102971020717,0.00102908472333,0.000994111862499,0.00102797058024,0.0009941118624992704
76,0.00102806418257,0.00102628463699,0.000991909454607,0.00102125406207,0.0009919094546067214
77,0.00102100243696,0.00100897426156,0.000983925725996,0.00102046284703,0.0009839257259962317
78,0.00101683850954,0.0010000269795,0.000979520910211,0.00101555891056,0.000979520910211134
79,0.00100080442948,0.000985178070184,0.000960662792631,0.00101308340409,0.0009606627926311837
80,0.00099673795861,0.000983669420778,0.000932582092001,0.00100840604032,0.0009325820920011849
81,0.000981923737222,0.000981651189245,0.000916476984287,0.00100598944826,0.0009164769842869209
82,0.000981375888259,0.000981243193183,0.000915788731821,0.00100390184088,0.0009157887318204993
83,0.00097533495871,0.000969285770132,0.000914962828861,0.000990104030737,0.0009149628288607935
84,0.000954178353194,0.000961297636706,0.00090821795469,0.000988206656337,0.0009082179546898624
85,0.000950349742373,0.000959950588979,0.000904363740878,0.000985806307035,0.0009043637408779018
86,0.000949112815041,0.000957818107537,0.000902161332985,0.000962633947695,0.0009021613329853529
87,0.000943716915704,0.000948083739953,0.000901197779532,0.000961031971254,0.0009011977795323628
88,0.000943433355688,0.000942911660318,0.000894865856841,0.00096046980664,0.0008948658568412846
89,0.00093561508297,0.000937126485386,0.000883716166885,0.0009596494097,0.0008837161668852556
90,0.00093095781618,0.000935778336455,0.000879586652087,0.000953207091313,0.0008795866520867264
91,0.000928947843677,0.00093214353753,0.000869951117557,0.000948380239115,0.0008699511175568248
92,0.000928513694022,0.000927919043891,0.000863343893879,0.000936175595779,0.0008633438938791781
93,0.000913744071393,0.00091344454392,0.000855497815762,0.000934777617369,0.0008554978157619726
94,0.000909145168413,0.000909145168413,0.000843935174326,0.000933757627214,0.0008439351743260908
95,0.000906756932354,0.000903896555104,0.00084118216446,0.000925639827023,0.0008411821644604046
96,0.000894799509304,0.00090111904345,0.000836914999169,0.000925085095535,0.000836914999168591
97,0.000882519708798,0.000899849630601,0.000836777348675,0.000922886541856,0.0008367773486753068
98,0.000882452810658,0.00088380123489,0.000835263193249,0.000912723805937,0.0008352631932491793
99,0.000880052461356,0.00088347197491,0.000829619523025,0.000908580250788,0.0008296195230245228
