q,LFU,PLFU,LRU,MFU,normal
0,0.0243357879865,,,,0.024335787986535372
1,0.0066191428128,,,,0.0066191428128025455
2,0.00642770698382,,,,0.006427706983816767
3,0.00502674325886,,,,0.004977331553630241
4,0.00432781414435,,,,0.004181286632924184
5,0.00286417966943,,,,0.0027866594590142337
6,0.00181851481623,,,,0.0018185148162291377
7,0.00177254343132,,,,0.0017495409976527139
8,0.00172041127816,,,,0.0017204112781568455
9,0.00144315159458,,,,0.0013935389947333802
10,0.00142154705262,,,,0.00135829873063062
11,0.00140445426894,,,,0.001281372833456186
12,0.00136624243862,,,,0.0012692354503329075
13,0.00134181700141,,,,0.0012326558887820612
14,0.00128894823465,,,,0.0011995919830324407
15,0.00126908477937,,,,0.0011805069943972165
16,0.0012632839473,,,,0.0011705459696270777
17,0.00120236265463,,,,0.0011702948513555615
18,0.00117946066827,,,,0.0011290277487364148
19,0.00117054596963,,,,0.0011263491538402429
20,0.00114713337611,,,,0.001110947233187255
21,0.00112629055958,,,,0.0010993957926975142
22,0.00111189311201,,,,0.001090522947103945
23,0.00111094723319,,,,0.0010642392346852593
24,0.00109828250169,,,,0.0009844673304336428
25,0.00101659372797,,,,0.0009616992738161824
26,0.000998027717096,,,,0.0009449580557151087
27,0.000995683946561,,,,0.0009301420776956584
28,0.000992268738069,,,,0.0009070391967161766
29,0.000963699849379,,,,0.0009002590033852417
30,0.000961900168433,,,,0.0008982500572131129
31,0.000946372688645,,,,0.0008839363157366948
32,0.000932176135695,,,,0.000882848136560125
33,0.000927187252701,,,,0.0008795835990304156
34,0.000894248906087,,,,0.0008510398221680849
35,0.000882697465597,,,,0.0008173062676944212
36,0.000870786088918,,,,0.0008126187266261206
37,0.000864516502739,,,,0.0008122839022640991
38,0.0008557859575,,,,0.0008044155297565944
39,0.000854773113805,,,,0.0007965471572490897
40,0.000843204932097,,,,0.0007920270283617998
41,0.000835637901515,,,,0.0007793037026049838
42,0.000825710359181,,,,0.0007661618463956409
43,0.000822161220944,,,,0.0007577912373451039
44,0.000809186776915,,,,0.0007513458683761906
45,0.000805336296752,,,,0.0007500065709281047
46,0.000798782109866,,,,0.0007329305284650094
47,0.000796773163693,,,,0.0007262340412245799
48,0.000796547157249,,,,0.0007254806864100316
49,0.00079512415371,,,,0.0007224672671518384
50,0.000791650350955,,,,0.0007145988946443336
51,0.000781873479583,,,,0.0007114180632051296
52,0.000780601147008,,,,0.000708320937856431
53,0.000779496226613,,,,0.0007034659846071196
54,0.00077572945254,,,,0.0006997829166248833
55,0.000756560757815,,,,0.000695597612099615
56,0.000743234748206,,,,0.0006935049598369807
57,0.000737132574208,,,,0.0006921656623888948
58,0.000732804969329,,,,0.0006717413763055848
59,0.000726234041225,,,,0.0006613618210829191
60,0.000720901963259,,,,0.0006584321079152311
61,0.000711761258176,,,,0.0006522378572178339
62,0.000709802535658,,,,0.0006500614988646943
63,0.000707366688425,,,,0.0006474666100590279
64,0.000702494993957,,,,0.0006459599004299312
65,0.000698585919531,,,,0.000640686416728093
66,0.000694676845104,,,,0.0006399330619135447
67,0.000691596460973,,,,0.0006331528685826098
68,0.000691044000776,,,,0.0006308090980484595
69,0.00068845748258,,,,0.0006293023884193628
70,0.000676797224172,,,,0.0006277956787902662
71,0.000674604124601,,,,0.0006210154854593313
72,0.000674152111712,,,,0.0006138167616758696
73,0.00067302207949,,,,0.0006111381667796978
74,0.000671331216462,,,,0.0006061158013493757
75,0.000656054854945,,,,0.0006045253856297736
76,0.00064261165681,,,,0.0006031860881816878
77,0.000640778493428,,,,0.0005983311349323764
78,0.000639924691304,,,,0.0005956525400362046
79,0.000636199770277,,,,0.000584184805636969
80,0.000633278427718,,,,0.0005671087631738738
81,0.000629762771917,,,,0.0005573151505847456
82,0.000621015485459,,,,0.0005568966201322188
83,0.000620404430999,,,,0.0005563943835891866
84,0.000607982447168,,,,0.0005522927851544235
85,0.000602014202915,,,,0.0005499490146202732
86,0.000595401421765,,,,0.0005486097171721872
87,0.000595300974456,,,,0.0005480237745386497
88,0.000588001803364,,,,0.0005441732943754028
89,0.000587666979002,,,,0.0005373931010444679
90,0.000584846083752,,,,0.0005348819183293068
91,0.000584176435028,,,,0.0005290224919939309
92,0.000583473303868,,,,0.0005250045996496733
93,0.000582753431489,,,,0.0005202333524908673
94,0.000582050300329,,,,0.0005132020408884163
95,0.00057834212052,,,,0.0005115279190783089
96,0.000571980457641,,,,0.0005089330302726425
97,0.000569946399642,,,,0.0005088493241821371
98,0.000565719242071,,,,0.0005079285571865781
99,0.000564932404821,,,,0.0005044966074758579
