,LFU,PLFU,LRU,MFU
1000,1.238,1.006,0.848,1.9020000000000001
2000,1.8719999999999999,1.5499999999999998,0.99,2.29
3000,1.8719999999999999,1.5499999999999998,0.99,2.3
4000,1.8719999999999999,1.562,0.996,2.354
5000,1.932,1.6320000000000001,1.054,2.444
6000,1.974,1.6920000000000002,1.054,2.4699999999999998
7000,1.998,1.714,1.126,2.482
8000,2.146,1.76,1.162,2.626
9000,2.146,1.76,1.162,2.626
10000,2.146,1.76,1.162,2.626
11000,2.146,1.76,1.162,2.626
12000,2.146,1.762,1.162,2.626
13000,2.146,1.762,1.162,2.626
14000,2.146,1.762,1.162,2.626
15000,2.146,1.762,1.162,2.626
16000,2.146,1.766,1.162,2.78
17000,2.146,1.766,1.162,2.806
18000,2.1919999999999997,1.766,1.162,3.6800000000000006
19000,2.1999999999999997,1.766,1.1960000000000002,3.6860000000000004
20000,2.2279999999999998,1.766,1.1960000000000002,3.72
21000,2.2279999999999998,1.766,1.2500000000000002,3.7400000000000007
22000,2.5460000000000003,1.766,1.3020000000000003,4.126
23000,2.596,1.766,1.3020000000000003,4.172000000000001
24000,2.596,1.766,1.3020000000000003,4.172000000000001
25000,2.65,1.766,1.3360000000000003,4.238
26000,2.7780000000000005,1.766,1.3560000000000003,4.678
27000,2.7780000000000005,1.766,1.3560000000000003,4.678
28000,2.7880000000000003,1.854,1.4540000000000004,4.694
29000,2.7880000000000003,1.854,1.4540000000000004,4.694
30000,2.7880000000000003,1.854,1.4540000000000004,4.694
31000,2.7880000000000003,2.206,1.498,4.694
32000,2.7880000000000003,2.252,1.55,4.694
33000,2.7880000000000003,2.252,1.55,4.694
34000,2.7880000000000003,2.272,1.576,4.694
35000,2.7880000000000003,2.272,1.576,4.694
36000,2.834,2.272,1.576,4.744
37000,2.834,2.272,1.576,4.744
38000,2.834,2.272,1.576,4.744
39000,2.84,2.2819999999999996,1.588,4.744
40000,2.9059999999999997,2.2819999999999996,1.588,4.784
41000,2.9059999999999997,2.2819999999999996,1.588,4.784
42000,2.9059999999999997,2.2819999999999996,1.588,4.784
43000,3.4719999999999995,2.302,1.5940000000000007,5.6400000000000015
44000,3.4719999999999995,2.302,1.5940000000000007,5.6400000000000015
45000,3.4719999999999995,2.302,1.5940000000000007,5.6400000000000015
46000,3.4919999999999995,2.318,1.598,5.658000000000001
47000,3.5719999999999996,2.3619999999999997,1.6740000000000002,5.726000000000001
48000,3.5719999999999996,2.3619999999999997,1.6740000000000002,5.726000000000001
49000,3.5719999999999996,2.3619999999999997,1.6740000000000002,5.726000000000001
50000,3.5719999999999996,2.3619999999999997,1.6740000000000002,5.726000000000001
51000,3.5899999999999994,2.3739999999999997,1.6860000000000002,5.738
52000,3.5899999999999994,2.3739999999999997,1.6860000000000002,5.954
53000,3.6059999999999994,2.3899999999999997,1.6860000000000002,5.954
54000,3.689999999999999,2.5540000000000007,1.6860000000000002,6.097999999999999
55000,3.689999999999999,2.5540000000000007,1.6860000000000002,6.097999999999999
56000,3.689999999999999,2.5540000000000007,1.6860000000000002,6.131999999999999
57000,3.689999999999999,2.5540000000000007,1.6860000000000002,6.131999999999999
58000,3.715999999999999,2.5860000000000007,1.6860000000000002,6.131999999999999
59000,3.715999999999999,2.5860000000000007,1.7560000000000002,6.131999999999999
60000,3.877999999999999,2.674000000000001,1.7560000000000002,6.155999999999999
61000,3.877999999999999,2.674000000000001,1.7560000000000002,6.155999999999999
62000,3.877999999999999,2.674000000000001,1.7560000000000002,6.155999999999999
63000,3.877999999999999,2.674000000000001,1.7780000000000002,6.167999999999998
64000,3.957999999999999,2.7200000000000006,1.7820000000000003,6.257999999999998
65000,3.957999999999999,2.7200000000000006,1.7980000000000003,6.257999999999998
66000,3.9999999999999987,2.7600000000000007,1.8060000000000003,6.2879999999999985
67000,3.9999999999999987,2.7600000000000007,1.8060000000000003,6.2879999999999985
68000,3.9999999999999987,2.7600000000000007,1.8060000000000003,6.2879999999999985
69000,3.9999999999999987,2.7600000000000007,1.8060000000000003,6.2879999999999985
70000,3.9999999999999987,2.7600000000000007,1.8060000000000003,6.2879999999999985
71000,3.9999999999999987,2.7600000000000007,1.8060000000000003,6.2879999999999985
72000,3.9999999999999987,2.7600000000000007,1.8060000000000003,6.2879999999999985
73000,3.9999999999999987,2.7600000000000007,1.8060000000000003,6.2879999999999985
74000,3.9999999999999987,2.7600000000000007,1.8060000000000003,6.2879999999999985
75000,4.027999999999999,2.7900000000000005,1.8420000000000003,6.313999999999998
76000,4.027999999999999,2.7900000000000005,1.8420000000000003,6.313999999999998
77000,4.027999999999999,2.7900000000000005,1.8420000000000003,6.313999999999998
78000,4.027999999999999,2.7900000000000005,1.8420000000000003,6.313999999999998
79000,4.027999999999999,2.7900000000000005,1.8420000000000003,6.313999999999998
80000,4.027999999999999,2.7900000000000005,1.9240000000000004,6.313999999999998
81000,4.027999999999999,2.825999999999999,2.0700000000000003,6.313999999999998
82000,4.027999999999999,2.825999999999999,2.0700000000000003,6.313999999999998
83000,4.027999999999999,2.825999999999999,2.0700000000000003,6.313999999999998
84000,4.027999999999999,2.825999999999999,2.0700000000000003,6.313999999999998
85000,4.027999999999999,2.825999999999999,2.0700000000000003,6.313999999999998
86000,4.027999999999999,2.825999999999999,2.0700000000000003,6.313999999999998
87000,4.027999999999999,2.825999999999999,2.0700000000000003,6.313999999999998
88000,4.027999999999999,2.825999999999999,2.0700000000000003,6.313999999999998
89000,4.027999999999999,2.825999999999999,2.0700000000000003,6.313999999999998
90000,4.027999999999999,2.825999999999999,2.0700000000000003,6.313999999999998
91000,4.027999999999999,2.825999999999999,2.0700000000000003,6.313999999999998
92000,4.027999999999999,2.825999999999999,2.0700000000000003,6.313999999999998
93000,4.027999999999999,2.825999999999999,2.0700000000000003,6.313999999999998
94000,4.027999999999999,2.825999999999999,2.0700000000000003,6.313999999999998
95000,4.027999999999999,2.825999999999999,2.0700000000000003,6.313999999999998
96000,4.027999999999999,2.825999999999999,2.0700000000000003,6.313999999999998
97000,4.318,2.8579999999999997,2.0700000000000003,7.14
98000,4.318,2.8579999999999997,2.0700000000000003,7.14
99000,4.318,2.8579999999999997,2.0700000000000003,7.14
